simulation/qsim/ula.msim.vcd
$comment
	File created using the following command:
		vcd file ula.msim.vcd -direction
$end
$date
	Thu Aug 29 16:22:46 2019
$end
$version
	ModelSim Version 10.1d
$end
$timescale
	1ps
$end
$scope module ula_vlg_vec_tst $end
$var reg 4 ! a [3:0] $end
$var reg 4 " b [3:0] $end
$var reg 3 # selection [2:0] $end
$var wire 1 $ p1 [6] $end
$var wire 1 % p1 [5] $end
$var wire 1 & p1 [4] $end
$var wire 1 ' p1 [3] $end
$var wire 1 ( p1 [2] $end
$var wire 1 ) p1 [1] $end
$var wire 1 * p1 [0] $end
$var wire 1 + p2 [6] $end
$var wire 1 , p2 [5] $end
$var wire 1 - p2 [4] $end
$var wire 1 . p2 [3] $end
$var wire 1 / p2 [2] $end
$var wire 1 0 p2 [1] $end
$var wire 1 1 p2 [0] $end
$var wire 1 2 p3 [6] $end
$var wire 1 3 p3 [5] $end
$var wire 1 4 p3 [4] $end
$var wire 1 5 p3 [3] $end
$var wire 1 6 p3 [2] $end
$var wire 1 7 p3 [1] $end
$var wire 1 8 p3 [0] $end
$var wire 1 9 p4 [6] $end
$var wire 1 : p4 [5] $end
$var wire 1 ; p4 [4] $end
$var wire 1 < p4 [3] $end
$var wire 1 = p4 [2] $end
$var wire 1 > p4 [1] $end
$var wire 1 ? p4 [0] $end
$var wire 1 @ p5 [6] $end
$var wire 1 A p5 [5] $end
$var wire 1 B p5 [4] $end
$var wire 1 C p5 [3] $end
$var wire 1 D p5 [2] $end
$var wire 1 E p5 [1] $end
$var wire 1 F p5 [0] $end
$var wire 1 G p6 [6] $end
$var wire 1 H p6 [5] $end
$var wire 1 I p6 [4] $end
$var wire 1 J p6 [3] $end
$var wire 1 K p6 [2] $end
$var wire 1 L p6 [1] $end
$var wire 1 M p6 [0] $end
$var wire 1 N p7 [6] $end
$var wire 1 O p7 [5] $end
$var wire 1 P p7 [4] $end
$var wire 1 Q p7 [3] $end
$var wire 1 R p7 [2] $end
$var wire 1 S p7 [1] $end
$var wire 1 T p7 [0] $end
$var wire 1 U p8 [6] $end
$var wire 1 V p8 [5] $end
$var wire 1 W p8 [4] $end
$var wire 1 X p8 [3] $end
$var wire 1 Y p8 [2] $end
$var wire 1 Z p8 [1] $end
$var wire 1 [ p8 [0] $end
$var wire 1 \ sampler $end
$scope module i1 $end
$var wire 1 ] gnd $end
$var wire 1 ^ vcc $end
$var wire 1 _ unknown $end
$var tri1 1 ` devclrn $end
$var tri1 1 a devpor $end
$var tri1 1 b devoe $end
$var wire 1 c Add1~0_combout $end
$var wire 1 d Add1~5 $end
$var wire 1 e Add1~6_combout $end
$var wire 1 f Mux3~2_combout $end
$var wire 1 g Mux2~0_combout $end
$var wire 1 h Mux2~1_combout $end
$var wire 1 i Mux2~3_combout $end
$var wire 1 j Add0~1 $end
$var wire 1 k Add0~2_combout $end
$var wire 1 l Add1~1 $end
$var wire 1 m Add1~2_combout $end
$var wire 1 n Mux2~2_combout $end
$var wire 1 o Mux2~4_combout $end
$var wire 1 p Mux14~0_combout $end
$var wire 1 q Add1~3 $end
$var wire 1 r Add1~4_combout $end
$var wire 1 s Add0~3 $end
$var wire 1 t Add0~4_combout $end
$var wire 1 u Mux1~1_combout $end
$var wire 1 v Mux1~2_combout $end
$var wire 1 w Mux1~0_combout $end
$var wire 1 x Mux1~3_combout $end
$var wire 1 y Mux0~0_combout $end
$var wire 1 z Add0~5 $end
$var wire 1 { Add0~6_combout $end
$var wire 1 | Mux0~1_combout $end
$var wire 1 } Mux0~2_combout $end
$var wire 1 ~ Mux0~3_combout $end
$var wire 1 !! Add0~0_combout $end
$var wire 1 "! Mux3~0_combout $end
$var wire 1 #! Mux3~1_combout $end
$var wire 1 $! Mux3~3_combout $end
$var wire 1 %! Mux10~0_combout $end
$var wire 1 &! Mux9~0_combout $end
$var wire 1 '! selection~combout [2] $end
$var wire 1 (! selection~combout [1] $end
$var wire 1 )! selection~combout [0] $end
$var wire 1 *! b~combout [3] $end
$var wire 1 +! b~combout [2] $end
$var wire 1 ,! b~combout [1] $end
$var wire 1 -! b~combout [0] $end
$var wire 1 .! a~combout [3] $end
$var wire 1 /! a~combout [2] $end
$var wire 1 0! a~combout [1] $end
$var wire 1 1! a~combout [0] $end
$upscope $end
$upscope $end
$enddefinitions $end
#0
$dumpvars
b1100 !
b11 "
b0 #
0*
1)
1(
0'
0&
0%
0$
11
00
0/
1.
1-
1,
1+
18
07
06
15
14
13
12
1?
0>
0=
1<
1;
1:
19
1F
1E
1D
1C
1B
1A
1@
1M
1L
1K
1J
1I
1H
1G
1T
1S
1R
1Q
1P
1O
1N
1[
1Z
1Y
1X
1W
1V
1U
x\
0]
1^
x_
1`
1a
1b
1c
1d
1e
0f
0g
0h
0i
0j
1k
0l
0m
0n
1o
1p
1q
0r
1s
1t
1u
1v
1w
1x
1y
0z
1{
1|
1}
1~
1!!
1"!
1#!
1$!
0%!
1&!
0)!
0(!
0'!
1-!
1,!
0+!
0*!
01!
00!
1/!
1.!
$end
#10000
b1 #
1)!
0\
0y
0w
0u
1n
0v
0o
0x
0,
0-
0.
01
03
04
05
08
#20000
b11 #
b10 #
0)!
1(!
1\
1w
0n
0#!
0~
1h
1f
1o
0$!
0&!
1%!
1i
0:
0;
0<
0?
0%!
0o
1,
1-
1.
11
0(
0)
1%
1&
1'
1*
1$
0%
0&
0'
0*
0,
0-
0.
01
#30000
b11 #
1)!
0\
1$!
1y
1u
1n
1%!
1~
1v
1o
1&!
0%!
1x
1%
1&
1'
1*
1:
1;
1<
1?
1,
1-
1.
11
1(
1)
0%
0&
0'
0*
13
14
15
18
0$
#40000
b111 #
b101 #
b100 #
0)!
0(!
1'!
1\
0$!
1#!
0~
0h
1g
0f
0}
0&!
1$!
1~
0:
0;
0<
0?
1&!
0(
0)
1:
1;
1<
1?
1$
1(
1)
0$
#50000
b101 #
1)!
0\
0y
0w
0u
0~
0x
0v
0:
0;
0<
0?
03
04
05
08
#60000
b111 #
b110 #
0)!
1(!
1\
1w
1~
1h
1f
1x
0n
0$!
1:
1;
1<
1?
0&!
0o
13
14
15
18
0(
0)
0,
0-
0.
01
1$
#70000
b111 #
1)!
0\
1y
1u
0p
1v
z:
z;
z<
z?
z3
z4
z5
z8
z,
z-
z.
z1
#80000
b11 #
b1 #
b0 #
0)!
0(!
0'!
1\
1p
1n
0~
0h
0g
0f
1}
1o
0n
0i
1$!
1~
0:
0;
0<
0?
13
14
15
18
0,
0-
0.
01
1&!
1,
1-
1.
11
1:
1;
1<
1?
1(
1)
0$
#90000
b1 #
1)!
0\
0y
0w
0u
1n
0v
0o
0x
0,
0-
0.
01
03
04
05
08
#100000
b11 #
b10 #
0)!
1(!
1\
1w
0n
0#!
0~
1h
1f
1o
0$!
0&!
1%!
1i
0:
0;
0<
0?
0%!
0o
1,
1-
1.
11
0(
0)
1%
1&
1'
1*
1$
0%
0&
0'
0*
0,
0-
0.
01
#110000
b11 #
1)!
0\
1$!
1y
1u
1n
1%!
1~
1v
1o
1&!
0%!
1x
1%
1&
1'
1*
1:
1;
1<
1?
1,
1-
1.
11
1(
1)
0%
0&
0'
0*
13
14
15
18
0$
#120000
b111 #
b101 #
b100 #
0)!
0(!
1'!
1\
0$!
1#!
0~
0h
1g
0f
0}
0&!
1$!
1~
0:
0;
0<
0?
1&!
0(
0)
1:
1;
1<
1?
1$
1(
1)
0$
#130000
b101 #
1)!
0\
0y
0w
0u
0~
0x
0v
0:
0;
0<
0?
03
04
05
08
#140000
b111 #
b110 #
0)!
1(!
1\
1w
1~
1h
1f
1x
0n
0$!
1:
1;
1<
1?
0&!
0o
13
14
15
18
0(
0)
0,
0-
0.
01
1$
#150000
b111 #
1)!
0\
1y
1u
0p
1v
z:
z;
z<
z?
z3
z4
z5
z8
z,
z-
z.
z1
#160000
b11 #
b1 #
b0 #
0)!
0(!
0'!
1\
1p
1n
0~
0h
0g
0f
1}
1o
0n
0i
1$!
1~
0:
0;
0<
0?
13
14
15
18
0,
0-
0.
01
1&!
1,
1-
1.
11
1:
1;
1<
1?
1(
1)
0$
#170000
b1 #
1)!
0\
0y
0w
0u
1n
0v
0o
0x
0,
0-
0.
01
03
04
05
08
#180000
b11 #
b10 #
0)!
1(!
1\
1w
0n
0#!
0~
1h
1f
1o
0$!
0&!
1%!
1i
0:
0;
0<
0?
0%!
0o
1,
1-
1.
11
0(
0)
1%
1&
1'
1*
1$
0%
0&
0'
0*
0,
0-
0.
01
#190000
b11 #
1)!
0\
1$!
1y
1u
1n
1%!
1~
1v
1o
1&!
0%!
1x
1%
1&
1'
1*
1:
1;
1<
1?
1,
1-
1.
11
1(
1)
0%
0&
0'
0*
13
14
15
18
0$
#200000
b111 #
b101 #
b100 #
0)!
0(!
1'!
1\
0$!
1#!
0~
0h
1g
0f
0}
0&!
1$!
1~
0:
0;
0<
0?
1&!
0(
0)
1:
1;
1<
1?
1$
1(
1)
0$
#210000
b101 #
1)!
0\
0y
0w
0u
0~
0x
0v
0:
0;
0<
0?
03
04
05
08
#220000
b111 #
b110 #
0)!
1(!
1\
1w
1~
1h
1f
1x
0n
0$!
1:
1;
1<
1?
0&!
0o
13
14
15
18
0(
0)
0,
0-
0.
01
1$
#230000
b111 #
1)!
0\
1y
1u
0p
1v
z:
z;
z<
z?
z3
z4
z5
z8
z,
z-
z.
z1
#240000
b11 #
b1 #
b0 #
0)!
0(!
0'!
1\
1p
1n
0~
0h
0g
0f
1}
1o
0n
0i
1$!
1~
0:
0;
0<
0?
13
14
15
18
0,
0-
0.
01
1&!
1,
1-
1.
11
1:
1;
1<
1?
1(
1)
0$
#250000
b1 #
1)!
0\
0y
0w
0u
1n
0v
0o
0x
0,
0-
0.
01
03
04
05
08
#260000
b11 #
b10 #
0)!
1(!
1\
1w
0n
0#!
0~
1h
1f
1o
0$!
0&!
1%!
1i
0:
0;
0<
0?
0%!
0o
1,
1-
1.
11
0(
0)
1%
1&
1'
1*
1$
0%
0&
0'
0*
0,
0-
0.
01
#270000
b11 #
1)!
0\
1$!
1y
1u
1n
1%!
1~
1v
1o
1&!
0%!
1x
1%
1&
1'
1*
1:
1;
1<
1?
1,
1-
1.
11
1(
1)
0%
0&
0'
0*
13
14
15
18
0$
#280000
b111 #
b101 #
b100 #
0)!
0(!
1'!
1\
0$!
1#!
0~
0h
1g
0f
0}
0&!
1$!
1~
0:
0;
0<
0?
1&!
0(
0)
1:
1;
1<
1?
1$
1(
1)
0$
#290000
b101 #
1)!
0\
0y
0w
0u
0~
0x
0v
0:
0;
0<
0?
03
04
05
08
#300000
b111 #
b110 #
0)!
1(!
1\
1w
1~
1h
1f
1x
0n
0$!
1:
1;
1<
1?
0&!
0o
13
14
15
18
0(
0)
0,
0-
0.
01
1$
#310000
b111 #
1)!
0\
1y
1u
0p
1v
z:
z;
z<
z?
z3
z4
z5
z8
z,
z-
z.
z1
#320000
b11 #
b1 #
b0 #
0)!
0(!
0'!
1\
1p
1n
0~
0h
0g
0f
1}
1o
0n
0i
1$!
1~
0:
0;
0<
0?
13
14
15
18
0,
0-
0.
01
1&!
1,
1-
1.
11
1:
1;
1<
1?
1(
1)
0$
#330000
b1 #
1)!
0\
0y
0w
0u
1n
0v
0o
0x
0,
0-
0.
01
03
04
05
08
#340000
b11 #
b10 #
0)!
1(!
1\
1w
0n
0#!
0~
1h
1f
1o
0$!
0&!
1%!
1i
0:
0;
0<
0?
0%!
0o
1,
1-
1.
11
0(
0)
1%
1&
1'
1*
1$
0%
0&
0'
0*
0,
0-
0.
01
#350000
b11 #
1)!
0\
1$!
1y
1u
1n
1%!
1~
1v
1o
1&!
0%!
1x
1%
1&
1'
1*
1:
1;
1<
1?
1,
1-
1.
11
1(
1)
0%
0&
0'
0*
13
14
15
18
0$
#360000
b111 #
b101 #
b100 #
0)!
0(!
1'!
1\
0$!
1#!
0~
0h
1g
0f
0}
0&!
1$!
1~
0:
0;
0<
0?
1&!
0(
0)
1:
1;
1<
1?
1$
1(
1)
0$
#370000
b101 #
1)!
0\
0y
0w
0u
0~
0x
0v
0:
0;
0<
0?
03
04
05
08
#380000
b111 #
b110 #
0)!
1(!
1\
1w
1~
1h
1f
1x
0n
0$!
1:
1;
1<
1?
0&!
0o
13
14
15
18
0(
0)
0,
0-
0.
01
1$
#390000
b111 #
1)!
0\
1y
1u
0p
1v
z:
z;
z<
z?
z3
z4
z5
z8
z,
z-
z.
z1
#400000
b11 #
b1 #
b0 #
0)!
0(!
0'!
1\
1p
1n
0~
0h
0g
0f
1}
1o
0n
0i
1$!
1~
0:
0;
0<
0?
13
14
15
18
0,
0-
0.
01
1&!
1,
1-
1.
11
1:
1;
1<
1?
1(
1)
0$
#410000
b1 #
1)!
0\
0y
0w
0u
1n
0v
0o
0x
0,
0-
0.
01
03
04
05
08
#420000
b11 #
b10 #
0)!
1(!
1\
1w
0n
0#!
0~
1h
1f
1o
0$!
0&!
1%!
1i
0:
0;
0<
0?
0%!
0o
1,
1-
1.
11
0(
0)
1%
1&
1'
1*
1$
0%
0&
0'
0*
0,
0-
0.
01
#430000
b11 #
1)!
0\
1$!
1y
1u
1n
1%!
1~
1v
1o
1&!
0%!
1x
1%
1&
1'
1*
1:
1;
1<
1?
1,
1-
1.
11
1(
1)
0%
0&
0'
0*
13
14
15
18
0$
#440000
b111 #
b101 #
b100 #
0)!
0(!
1'!
1\
0$!
1#!
0~
0h
1g
0f
0}
0&!
1$!
1~
0:
0;
0<
0?
1&!
0(
0)
1:
1;
1<
1?
1$
1(
1)
0$
#450000
b101 #
1)!
0\
0y
0w
0u
0~
0x
0v
0:
0;
0<
0?
03
04
05
08
#460000
b111 #
b110 #
0)!
1(!
1\
1w
1~
1h
1f
1x
0n
0$!
1:
1;
1<
1?
0&!
0o
13
14
15
18
0(
0)
0,
0-
0.
01
1$
#470000
b111 #
1)!
0\
1y
1u
0p
1v
z:
z;
z<
z?
z3
z4
z5
z8
z,
z-
z.
z1
#480000
b11 #
b1 #
b0 #
0)!
0(!
0'!
1\
1p
1n
0~
0h
0g
0f
1}
1o
0n
0i
1$!
1~
0:
0;
0<
0?
13
14
15
18
0,
0-
0.
01
1&!
1,
1-
1.
11
1:
1;
1<
1?
1(
1)
0$
#490000
b1 #
1)!
0\
0y
0w
0u
1n
0v
0o
0x
0,
0-
0.
01
03
04
05
08
#500000
b11 #
b10 #
0)!
1(!
1\
1w
0n
0#!
0~
1h
1f
1o
0$!
0&!
1%!
1i
0:
0;
0<
0?
0%!
0o
1,
1-
1.
11
0(
0)
1%
1&
1'
1*
1$
0%
0&
0'
0*
0,
0-
0.
01
#510000
b11 #
1)!
0\
1$!
1y
1u
1n
1%!
1~
1v
1o
1&!
0%!
1x
1%
1&
1'
1*
1:
1;
1<
1?
1,
1-
1.
11
1(
1)
0%
0&
0'
0*
13
14
15
18
0$
#520000
b111 #
b101 #
b100 #
0)!
0(!
1'!
1\
0$!
1#!
0~
0h
1g
0f
0}
0&!
1$!
1~
0:
0;
0<
0?
1&!
0(
0)
1:
1;
1<
1?
1$
1(
1)
0$
#530000
b101 #
1)!
0\
0y
0w
0u
0~
0x
0v
0:
0;
0<
0?
03
04
05
08
#540000
b111 #
b110 #
0)!
1(!
1\
1w
1~
1h
1f
1x
0n
0$!
1:
1;
1<
1?
0&!
0o
13
14
15
18
0(
0)
0,
0-
0.
01
1$
#550000
b111 #
1)!
0\
1y
1u
0p
1v
z:
z;
z<
z?
z3
z4
z5
z8
z,
z-
z.
z1
#560000
b11 #
b1 #
b0 #
0)!
0(!
0'!
1\
1p
1n
0~
0h
0g
0f
1}
1o
0n
0i
1$!
1~
0:
0;
0<
0?
13
14
15
18
0,
0-
0.
01
1&!
1,
1-
1.
11
1:
1;
1<
1?
1(
1)
0$
#570000
b1 #
1)!
0\
0y
0w
0u
1n
0v
0o
0x
0,
0-
0.
01
03
04
05
08
#580000
b11 #
b10 #
0)!
1(!
1\
1w
0n
0#!
0~
1h
1f
1o
0$!
0&!
1%!
1i
0:
0;
0<
0?
0%!
0o
1,
1-
1.
11
0(
0)
1%
1&
1'
1*
1$
0%
0&
0'
0*
0,
0-
0.
01
#590000
b11 #
1)!
0\
1$!
1y
1u
1n
1%!
1~
1v
1o
1&!
0%!
1x
1%
1&
1'
1*
1:
1;
1<
1?
1,
1-
1.
11
1(
1)
0%
0&
0'
0*
13
14
15
18
0$
#600000
b111 #
b101 #
b100 #
0)!
0(!
1'!
1\
0$!
1#!
0~
0h
1g
0f
0}
0&!
1$!
1~
0:
0;
0<
0?
1&!
0(
0)
1:
1;
1<
1?
1$
1(
1)
0$
#610000
b101 #
1)!
0\
0y
0w
0u
0~
0x
0v
0:
0;
0<
0?
03
04
05
08
#620000
b111 #
b110 #
0)!
1(!
1\
1w
1~
1h
1f
1x
0n
0$!
1:
1;
1<
1?
0&!
0o
13
14
15
18
0(
0)
0,
0-
0.
01
1$
#630000
b111 #
1)!
0\
1y
1u
0p
1v
z:
z;
z<
z?
z3
z4
z5
z8
z,
z-
z.
z1
#640000
b11 #
b1 #
b0 #
0)!
0(!
0'!
1\
1p
1n
0~
0h
0g
0f
1}
1o
0n
0i
1$!
1~
0:
0;
0<
0?
13
14
15
18
0,
0-
0.
01
1&!
1,
1-
1.
11
1:
1;
1<
1?
1(
1)
0$
#650000
b1 #
1)!
0\
0y
0w
0u
1n
0v
0o
0x
0,
0-
0.
01
03
04
05
08
#660000
b11 #
b10 #
0)!
1(!
1\
1w
0n
0#!
0~
1h
1f
1o
0$!
0&!
1%!
1i
0:
0;
0<
0?
0%!
0o
1,
1-
1.
11
0(
0)
1%
1&
1'
1*
1$
0%
0&
0'
0*
0,
0-
0.
01
#670000
b11 #
1)!
0\
1$!
1y
1u
1n
1%!
1~
1v
1o
1&!
0%!
1x
1%
1&
1'
1*
1:
1;
1<
1?
1,
1-
1.
11
1(
1)
0%
0&
0'
0*
13
14
15
18
0$
#680000
b111 #
b101 #
b100 #
0)!
0(!
1'!
1\
0$!
1#!
0~
0h
1g
0f
0}
0&!
1$!
1~
0:
0;
0<
0?
1&!
0(
0)
1:
1;
1<
1?
1$
1(
1)
0$
#690000
b101 #
1)!
0\
0y
0w
0u
0~
0x
0v
0:
0;
0<
0?
03
04
05
08
#700000
b111 #
b110 #
0)!
1(!
1\
1w
1~
1h
1f
1x
0n
0$!
1:
1;
1<
1?
0&!
0o
13
14
15
18
0(
0)
0,
0-
0.
01
1$
#710000
b111 #
1)!
0\
1y
1u
0p
1v
z:
z;
z<
z?
z3
z4
z5
z8
z,
z-
z.
z1
#720000
b11 #
b1 #
b0 #
0)!
0(!
0'!
1\
1p
1n
0~
0h
0g
0f
1}
1o
0n
0i
1$!
1~
0:
0;
0<
0?
13
14
15
18
0,
0-
0.
01
1&!
1,
1-
1.
11
1:
1;
1<
1?
1(
1)
0$
#730000
b1 #
1)!
0\
0y
0w
0u
1n
0v
0o
0x
0,
0-
0.
01
03
04
05
08
#740000
b11 #
b10 #
0)!
1(!
1\
1w
0n
0#!
0~
1h
1f
1o
0$!
0&!
1%!
1i
0:
0;
0<
0?
0%!
0o
1,
1-
1.
11
0(
0)
1%
1&
1'
1*
1$
0%
0&
0'
0*
0,
0-
0.
01
#750000
b11 #
1)!
0\
1$!
1y
1u
1n
1%!
1~
1v
1o
1&!
0%!
1x
1%
1&
1'
1*
1:
1;
1<
1?
1,
1-
1.
11
1(
1)
0%
0&
0'
0*
13
14
15
18
0$
#760000
b111 #
b101 #
b100 #
0)!
0(!
1'!
1\
0$!
1#!
0~
0h
1g
0f
0}
0&!
1$!
1~
0:
0;
0<
0?
1&!
0(
0)
1:
1;
1<
1?
1$
1(
1)
0$
#770000
b101 #
1)!
0\
0y
0w
0u
0~
0x
0v
0:
0;
0<
0?
03
04
05
08
#780000
b111 #
b110 #
0)!
1(!
1\
1w
1~
1h
1f
1x
0n
0$!
1:
1;
1<
1?
0&!
0o
13
14
15
18
0(
0)
0,
0-
0.
01
1$
#790000
b111 #
1)!
0\
1y
1u
0p
1v
z:
z;
z<
z?
z3
z4
z5
z8
z,
z-
z.
z1
#800000
b11 #
b1 #
b0 #
0)!
0(!
0'!
1\
1p
1n
0~
0h
0g
0f
1}
1o
0n
0i
1$!
1~
0:
0;
0<
0?
13
14
15
18
0,
0-
0.
01
1&!
1,
1-
1.
11
1:
1;
1<
1?
1(
1)
0$
#810000
b1 #
1)!
0\
0y
0w
0u
1n
0v
0o
0x
0,
0-
0.
01
03
04
05
08
#820000
b11 #
b10 #
0)!
1(!
1\
1w
0n
0#!
0~
1h
1f
1o
0$!
0&!
1%!
1i
0:
0;
0<
0?
0%!
0o
1,
1-
1.
11
0(
0)
1%
1&
1'
1*
1$
0%
0&
0'
0*
0,
0-
0.
01
#830000
b11 #
1)!
0\
1$!
1y
1u
1n
1%!
1~
1v
1o
1&!
0%!
1x
1%
1&
1'
1*
1:
1;
1<
1?
1,
1-
1.
11
1(
1)
0%
0&
0'
0*
13
14
15
18
0$
#840000
b111 #
b101 #
b100 #
0)!
0(!
1'!
1\
0$!
1#!
0~
0h
1g
0f
0}
0&!
1$!
1~
0:
0;
0<
0?
1&!
0(
0)
1:
1;
1<
1?
1$
1(
1)
0$
#850000
b101 #
1)!
0\
0y
0w
0u
0~
0x
0v
0:
0;
0<
0?
03
04
05
08
#860000
b111 #
b110 #
0)!
1(!
1\
1w
1~
1h
1f
1x
0n
0$!
1:
1;
1<
1?
0&!
0o
13
14
15
18
0(
0)
0,
0-
0.
01
1$
#870000
b111 #
1)!
0\
1y
1u
0p
1v
z:
z;
z<
z?
z3
z4
z5
z8
z,
z-
z.
z1
#880000
b11 #
b1 #
b0 #
0)!
0(!
0'!
1\
1p
1n
0~
0h
0g
0f
1}
1o
0n
0i
1$!
1~
0:
0;
0<
0?
13
14
15
18
0,
0-
0.
01
1&!
1,
1-
1.
11
1:
1;
1<
1?
1(
1)
0$
#890000
b1 #
1)!
0\
0y
0w
0u
1n
0v
0o
0x
0,
0-
0.
01
03
04
05
08
#900000
b11 #
b10 #
0)!
1(!
1\
1w
0n
0#!
0~
1h
1f
1o
0$!
0&!
1%!
1i
0:
0;
0<
0?
0%!
0o
1,
1-
1.
11
0(
0)
1%
1&
1'
1*
1$
0%
0&
0'
0*
0,
0-
0.
01
#910000
b11 #
1)!
0\
1$!
1y
1u
1n
1%!
1~
1v
1o
1&!
0%!
1x
1%
1&
1'
1*
1:
1;
1<
1?
1,
1-
1.
11
1(
1)
0%
0&
0'
0*
13
14
15
18
0$
#920000
b111 #
b101 #
b100 #
0)!
0(!
1'!
1\
0$!
1#!
0~
0h
1g
0f
0}
0&!
1$!
1~
0:
0;
0<
0?
1&!
0(
0)
1:
1;
1<
1?
1$
1(
1)
0$
#930000
b101 #
1)!
0\
0y
0w
0u
0~
0x
0v
0:
0;
0<
0?
03
04
05
08
#940000
b111 #
b110 #
0)!
1(!
1\
1w
1~
1h
1f
1x
0n
0$!
1:
1;
1<
1?
0&!
0o
13
14
15
18
0(
0)
0,
0-
0.
01
1$
#950000
b111 #
1)!
0\
1y
1u
0p
1v
z:
z;
z<
z?
z3
z4
z5
z8
z,
z-
z.
z1
#960000
b11 #
b1 #
b0 #
0)!
0(!
0'!
1\
1p
1n
0~
0h
0g
0f
1}
1o
0n
0i
1$!
1~
0:
0;
0<
0?
13
14
15
18
0,
0-
0.
01
1&!
1,
1-
1.
11
1:
1;
1<
1?
1(
1)
0$
#970000
b1 #
1)!
0\
0y
0w
0u
1n
0v
0o
0x
0,
0-
0.
01
03
04
05
08
#980000
b11 #
b10 #
0)!
1(!
1\
1w
0n
0#!
0~
1h
1f
1o
0$!
0&!
1%!
1i
0:
0;
0<
0?
0%!
0o
1,
1-
1.
11
0(
0)
1%
1&
1'
1*
1$
0%
0&
0'
0*
0,
0-
0.
01
#990000
b11 #
1)!
0\
1$!
1y
1u
1n
1%!
1~
1v
1o
1&!
0%!
1x
1%
1&
1'
1*
1:
1;
1<
1?
1,
1-
1.
11
1(
1)
0%
0&
0'
0*
13
14
15
18
0$
